Gov 50 Final Project
…
Milestone 3: First Visualization

legislation_data <- read_csv("legislatordiversity.com_data (1).csv")
legislation_data

# A tibble: 95,976 × 21
   `Election Year` State   `Legislative Branch`     District
             <dbl> <chr>   <chr>                    <chr>   
 1            2010 Alabama House Of Representatives 1       
 2            2010 Alabama House Of Representatives 10      
 3            2010 Alabama House Of Representatives 100     
 4            2010 Alabama House Of Representatives 101     
 5            2010 Alabama House Of Representatives 102     
 6            2010 Alabama House Of Representatives 103     
 7            2010 Alabama House Of Representatives 104     
 8            2010 Alabama House Of Representatives 105     
 9            2010 Alabama House Of Representatives 11      
10            2010 Alabama House Of Representatives 12      
# ℹ 95,966 more rows
# ℹ 17 more variables: `Name Of Elected Legislator` <chr>,
#   `Political Party Affiliation Of Legislator` <chr>,
#   `Assigned Race / Ethnicity Of Legislator` <chr>,
#   `Assigned Gender Of Legislator` <chr>,
#   `Total Population In District` <dbl>,
#   `Total Voting Age Population In District` <dbl>, …
…
         independent_prop = `Total Registered Independents In District`/`Total Population In District`,
         democrat_prop = `Total Registered Democrats In District`/`Total Population In District`,
         republican_prop = `Total Registered Republicans In District`/`Total Population In District`,
         legislator_race = `Assigned Race / Ethnicity Of Legislator`,
         legislator_gender = if_else(`Assigned Gender Of Legislator` == "Female", 1, 0),
         legislator_party = `Political Party Affiliation Of Legislator`,
         district_pop = `Total Population In District`,
         registered_prop = `Total Population Registered To Vote In District`/`Total Population In District`,
         legislative_branch = if_else(`Legislative Branch` == "House Of Representatives", "House", "Senate"),
         year = `Election Year`,
         state = `State`,
         district = as.numeric(`District`))
legislation_data

# A tibble: 35,001 × 39
   `Election Year` State   `Legislative Branch`     District
             <dbl> <chr>   <chr>                    <chr>   
 1            2018 Alabama House Of Representatives 1       
 2            2018 Alabama House Of Representatives 10      
 3            2018 Alabama House Of Representatives 100     
 4            2018 Alabama House Of Representatives 101     
 5            2018 Alabama House Of Representatives 102     
 6            2018 Alabama House Of Representatives 103     
 7            2018 Alabama House Of Representatives 104     
 8            2018 Alabama House Of Representatives 105     
 9            2018 Alabama House Of Representatives 11      
10            2018 Alabama House Of Representatives 12      
# ℹ 34,991 more rows
# ℹ 35 more variables: `Name Of Elected Legislator` <chr>,
#   `Political Party Affiliation Of Legislator` <chr>,
#   `Assigned Race / Ethnicity Of Legislator` <chr>,
#   `Assigned Gender Of Legislator` <chr>,
#   `Total Population In District` <dbl>,
#   `Total Voting Age Population In District` <dbl>, …
…
Tibble with new variables

legislation_data_2 <- legislation_data |>
  select(year, state, district, white_prop, black_prop, asian_prop, hispanic_prop, hawaiian_prop, native_prop, independent_prop, democrat_prop, republican_prop, legislator_race, legislator_gender, legislator_party, district_pop, registered_prop, legislative_branch)

legislation_data_2  

# A tibble: 35,001 × 18
    year state district white_prop black_prop asian_prop hispanic_prop
   <dbl> <chr>    <dbl>      <dbl>      <dbl>      <dbl>         <dbl>
 1  2018 Alab…        1      0.794    0.140      0.00602        0.0369
 2  2018 Alab…       10      0.663    0.185      0.0358         0.0608
 3  2018 Alab…      100      0.724    0.193      0.0328         0.0293
 4  2018 Alab…      101      0.692    0.211      0.0278         0.0472
 5  2018 Alab…      102      0.794    0.127      0.00621        0.0184
 6  2018 Alab…      103      0.299    0.627      0.0192         0.0337
 7  2018 Alab…      104      0.687    0.180      0.0280         0.0667
 8  2018 Alab…      105      0.794    0.112      0.0460         0.0277
 9  2018 Alab…       11      0.923    0.00578    0.00257        0.0581
10  2018 Alab…       12      0.913    0.0153     0.00509        0.0465
# ℹ 34,991 more rows
# ℹ 11 more variables: hawaiian_prop <dbl>, native_prop <dbl>,
#   independent_prop <dbl>, democrat_prop <dbl>,
#   republican_prop <dbl>, legislator_race <chr>,
#   legislator_gender <dbl>, legislator_party <chr>,
#   district_pop <dbl>, registered_prop <dbl>,
#   legislative_branch <chr>
…
state_data

# A tibble: 49 × 11
   state       white_prop_mean black_prop_mean asian_prop_mean
   <chr>                 <dbl>           <dbl>           <dbl>
 1 Alabama               0.647          0.272           0.0133
 2 Alaska                0.597          0.0315          0.0634
 3 Arizona               0.540          0.0420          0.0319
 4 Arkansas              0.715          0.161           0.0140
 5 California            0.368          0.0543          0.144 
 6 Colorado              0.679          0.0384          0.0308
 7 Connecticut           0.666          0.0984          0.0445
 8 Delaware              0.614          0.220           0.0397
 9 Florida               0.536          0.154           0.0269
10 Georgia               0.524          0.314           0.0388
# ℹ 39 more rows
# ℹ 7 more variables: hispanic_prop_mean <dbl>,
#   hawaiian_prop_mean <dbl>, native_prop_mean <dbl>,
#   independent_prop_mean <dbl>, democrat_prop_mean <dbl>,
#   republican_prop_mean <dbl>, registered_prop_mean <dbl>
…
